%YAML 1.1
%TAG !u! tag:unity3d.com,2011:
--- !u!221 &22100000
AnimatorOverrideController:
  m_ObjectHideFlags: 0
  m_CorrespondingSourceObject: {fileID: 0}
  m_PrefabInstance: {fileID: 0}
  m_PrefabAsset: {fileID: 0}
  m_Name: Player Boy
  m_Controller: {fileID: 9100000, guid: 61d870ee06a7ed640a3ff34bf793f084, type: 2}
  m_Clips:
  - m_OriginalClip: {fileID: 7400000, guid: 7cf27273fc15c9f42a440327f9348130, type: 2}
    m_OverrideClip: {fileID: 7400000, guid: e646d6ddd9e0d2c45a08727184ec0b37, type: 2}
  - m_OriginalClip: {fileID: 7400000, guid: 607e60f743cd9734aa9076c7ecf7a669, type: 2}
    m_OverrideClip: {fileID: 7400000, guid: e884c6eafe51f97409b5d34e93e0f92e, type: 2}
  - m_OriginalClip: {fileID: 7400000, guid: c07a8bb6f56342b43a5fc52974619244, type: 2}
    m_OverrideClip: {fileID: 7400000, guid: e646d6ddd9e0d2c45a08727184ec0b37, type: 2}
  - m_OriginalClip: {fileID: 7400000, guid: efc0cc586f80f3f4aa949b827c6ad90b, type: 2}
    m_OverrideClip: {fileID: 7400000, guid: c1eda69e59b3cc148b1b549e991cee4d, type: 2}
  - m_OriginalClip: {fileID: 7400000, guid: 6af5a27f628af6e4bb9b8e32ba10a0e4, type: 2}
    m_OverrideClip: {fileID: 7400000, guid: c1eda69e59b3cc148b1b549e991cee4d, type: 2}
  - m_OriginalClip: {fileID: 7400000, guid: 11d208e4e06ce964d97295bc94fb8ba6, type: 2}
    m_OverrideClip: {fileID: 7400000, guid: c1eda69e59b3cc148b1b549e991cee4d, type: 2}
  - m_OriginalClip: {fileID: 7400000, guid: c55ec424e8d1af548b7cdc933b7b4973, type: 2}
    m_OverrideClip: {fileID: 7400000, guid: c1eda69e59b3cc148b1b549e991cee4d, type: 2}
  - m_OriginalClip: {fileID: 7400000, guid: f3ecfbb5de5813d4699b224972157376, type: 2}
    m_OverrideClip: {fileID: 7400000, guid: c1eda69e59b3cc148b1b549e991cee4d, type: 2}
  - m_OriginalClip: {fileID: 7400000, guid: b7755353f3f526a4f86747b157d9b951, type: 2}
    m_OverrideClip: {fileID: 7400000, guid: c1eda69e59b3cc148b1b549e991cee4d, type: 2}
  - m_OriginalClip: {fileID: 7400000, guid: a99f35724a7700d44bb1b2fb368a024c, type: 2}
    m_OverrideClip: {fileID: 7400000, guid: c1eda69e59b3cc148b1b549e991cee4d, type: 2}
  - m_OriginalClip: {fileID: 7400000, guid: 3cbf036fc75321846a5b1604c56941e6, type: 2}
    m_OverrideClip: {fileID: 7400000, guid: c1eda69e59b3cc148b1b549e991cee4d, type: 2}
  - m_OriginalClip: {fileID: 7400000, guid: 97bbbabc22fc8ed4eae73486661f0a51, type: 2}
    m_OverrideClip: {fileID: 7400000, guid: 70790f1fc79d0884392069463e7e5113, type: 2}
  - m_OriginalClip: {fileID: 7400000, guid: c3c125fe1a5d3ed4fb6f0cd0eda52dc0, type: 2}
    m_OverrideClip: {fileID: 7400000, guid: 70790f1fc79d0884392069463e7e5113, type: 2}
  - m_OriginalClip: {fileID: 7400000, guid: 167190bb100bcc84db5404f1a4b830df, type: 2}
    m_OverrideClip: {fileID: 7400000, guid: 70790f1fc79d0884392069463e7e5113, type: 2}
  - m_OriginalClip: {fileID: 7400000, guid: c4daac5b7d5550e4c91af9f9f82adccb, type: 2}
    m_OverrideClip: {fileID: 7400000, guid: 70790f1fc79d0884392069463e7e5113, type: 2}
  - m_OriginalClip: {fileID: 7400000, guid: e38aef5f1c877bb408737b9f3c920310, type: 2}
    m_OverrideClip: {fileID: 7400000, guid: 70790f1fc79d0884392069463e7e5113, type: 2}
  - m_OriginalClip: {fileID: 7400000, guid: 396b1a097d8d81a4cbffbbfc3b24207a, type: 2}
    m_OverrideClip: {fileID: 7400000, guid: 70790f1fc79d0884392069463e7e5113, type: 2}
  - m_OriginalClip: {fileID: 7400000, guid: f3aca2d37a719f54895e7d9a27e428cf, type: 2}
    m_OverrideClip: {fileID: 7400000, guid: 70790f1fc79d0884392069463e7e5113, type: 2}
  - m_OriginalClip: {fileID: 7400000, guid: 3b8f41aa344763e45b3bcc9240c2e24e, type: 2}
    m_OverrideClip: {fileID: 7400000, guid: 238f1ebd31f5b37499b7bf7b458eeb33, type: 2}
  - m_OriginalClip: {fileID: 7400000, guid: 20726130ccb33bb4392f2ec18284517a, type: 2}
    m_OverrideClip: {fileID: 7400000, guid: 4c27e88e1515aa942888f5f5c3898e2a, type: 2}
  - m_OriginalClip: {fileID: 7400000, guid: ca5312701c4d24a4a8de164ff4600582, type: 2}
    m_OverrideClip: {fileID: 7400000, guid: 559fef5273bd4a24498b88a3652271c2, type: 2}
  - m_OriginalClip: {fileID: 7400000, guid: 41a287990f9f5a24e9eee7eafa44c734, type: 2}
    m_OverrideClip: {fileID: 7400000, guid: fc0cc057b7d197a4b942692a2b551823, type: 2}
  - m_OriginalClip: {fileID: 7400000, guid: a2ceede0cb52de142b89b500ade4e627, type: 2}
    m_OverrideClip: {fileID: 7400000, guid: 5072d12c60b005c4e9bf87f049b57c07, type: 2}
  - m_OriginalClip: {fileID: 7400000, guid: 4ba526d1a93d83648acc91857a9f6cd7, type: 2}
    m_OverrideClip: {fileID: 7400000, guid: 2f6e1a160ce294049806c0ddde90bfe4, type: 2}
  - m_OriginalClip: {fileID: 7400000, guid: 2a5c6077df90ef447b03b7f5ddd38ca9, type: 2}
    m_OverrideClip: {fileID: 7400000, guid: e03c5954190bd0f4486410feb525ed41, type: 2}
  - m_OriginalClip: {fileID: 7400000, guid: 873478761c61dd3438f2914dfbedf7d5, type: 2}
    m_OverrideClip: {fileID: 7400000, guid: 437f819e285b36d4aa251db1ca9e49bd, type: 2}
