%YAML 1.1
%TAG !u! tag:unity3d.com,2011:
--- !u!74 &7400000
AnimationClip:
  m_ObjectHideFlags: 0
  m_CorrespondingSourceObject: {fileID: 0}
  m_PrefabInstance: {fileID: 0}
  m_PrefabAsset: {fileID: 0}
  m_Name: spaceMelee
  serializedVersion: 6
  m_Legacy: 0
  m_Compressed: 0
  m_UseHighQualityCurve: 1
  m_RotationCurves: []
  m_CompressedRotationCurves: []
  m_EulerCurves: []
  m_PositionCurves: []
  m_ScaleCurves: []
  m_FloatCurves:
  - curve:
      serializedVersion: 2
      m_Curve:
      - serializedVersion: 3
        time: 0
        value: 0
        inSlope: Infinity
        outSlope: Infinity
        tangentMode: 103
        weightedMode: 0
        inWeight: 0.33333334
        outWeight: 0.33333334
      - serializedVersion: 3
        time: 0.025
        value: 1
        inSlope: Infinity
        outSlope: Infinity
        tangentMode: 103
        weightedMode: 0
        inWeight: 0.33333334
        outWeight: 0.33333334
      - serializedVersion: 3
        time: 0.475
        value: 1
        inSlope: Infinity
        outSlope: Infinity
        tangentMode: 103
        weightedMode: 0
        inWeight: 0.33333334
        outWeight: 0.33333334
      - serializedVersion: 3
        time: 0.5
        value: 0
        inSlope: Infinity
        outSlope: Infinity
        tangentMode: 103
        weightedMode: 0
        inWeight: 0.33333334
        outWeight: 0.33333334
      m_PreInfinity: 2
      m_PostInfinity: 2
      m_RotationOrder: 4
    attribute: m_Enabled
    path: meleeAreaOfEffect
    classID: 58
    script: {fileID: 0}
  m_PPtrCurves:
  - curve:
    - time: 0
      value: {fileID: 21300000, guid: 93575f0018eec4a4598176b823404918, type: 3}
    - time: 0.025
      value: {fileID: 21300002, guid: 93575f0018eec4a4598176b823404918, type: 3}
    - time: 0.05
      value: {fileID: 21300004, guid: 93575f0018eec4a4598176b823404918, type: 3}
    - time: 0.075
      value: {fileID: 21300006, guid: 93575f0018eec4a4598176b823404918, type: 3}
    - time: 0.1
      value: {fileID: 21300008, guid: 93575f0018eec4a4598176b823404918, type: 3}
    - time: 0.125
      value: {fileID: 21300010, guid: 93575f0018eec4a4598176b823404918, type: 3}
    - time: 0.15
      value: {fileID: 21300012, guid: 93575f0018eec4a4598176b823404918, type: 3}
    - time: 0.175
      value: {fileID: 21300014, guid: 93575f0018eec4a4598176b823404918, type: 3}
    - time: 0.2
      value: {fileID: 21300016, guid: 93575f0018eec4a4598176b823404918, type: 3}
    - time: 0.225
      value: {fileID: 21300018, guid: 93575f0018eec4a4598176b823404918, type: 3}
    - time: 0.25
      value: {fileID: 21300020, guid: 93575f0018eec4a4598176b823404918, type: 3}
    - time: 0.275
      value: {fileID: 21300022, guid: 93575f0018eec4a4598176b823404918, type: 3}
    - time: 0.3
      value: {fileID: 21300024, guid: 93575f0018eec4a4598176b823404918, type: 3}
    - time: 0.325
      value: {fileID: 21300026, guid: 93575f0018eec4a4598176b823404918, type: 3}
    - time: 0.35
      value: {fileID: 21300028, guid: 93575f0018eec4a4598176b823404918, type: 3}
    - time: 0.375
      value: {fileID: 21300030, guid: 93575f0018eec4a4598176b823404918, type: 3}
    - time: 0.4
      value: {fileID: 21300032, guid: 93575f0018eec4a4598176b823404918, type: 3}
    - time: 0.425
      value: {fileID: 21300034, guid: 93575f0018eec4a4598176b823404918, type: 3}
    - time: 0.45
      value: {fileID: 21300036, guid: 93575f0018eec4a4598176b823404918, type: 3}
    - time: 0.475
      value: {fileID: 21300038, guid: 93575f0018eec4a4598176b823404918, type: 3}
    attribute: m_Sprite
    path: 
    classID: 212
    script: {fileID: 0}
  m_SampleRate: 40
  m_WrapMode: 0
  m_Bounds:
    m_Center: {x: 0, y: 0, z: 0}
    m_Extent: {x: 0, y: 0, z: 0}
  m_ClipBindingConstant:
    genericBindings:
    - serializedVersion: 2
      path: 2655971257
      attribute: 3305885265
      script: {fileID: 0}
      typeID: 58
      customType: 0
      isPPtrCurve: 0
    - serializedVersion: 2
      path: 0
      attribute: 0
      script: {fileID: 0}
      typeID: 212
      customType: 23
      isPPtrCurve: 1
    pptrCurveMapping:
    - {fileID: 21300000, guid: 93575f0018eec4a4598176b823404918, type: 3}
    - {fileID: 21300002, guid: 93575f0018eec4a4598176b823404918, type: 3}
    - {fileID: 21300004, guid: 93575f0018eec4a4598176b823404918, type: 3}
    - {fileID: 21300006, guid: 93575f0018eec4a4598176b823404918, type: 3}
    - {fileID: 21300008, guid: 93575f0018eec4a4598176b823404918, type: 3}
    - {fileID: 21300010, guid: 93575f0018eec4a4598176b823404918, type: 3}
    - {fileID: 21300012, guid: 93575f0018eec4a4598176b823404918, type: 3}
    - {fileID: 21300014, guid: 93575f0018eec4a4598176b823404918, type: 3}
    - {fileID: 21300016, guid: 93575f0018eec4a4598176b823404918, type: 3}
    - {fileID: 21300018, guid: 93575f0018eec4a4598176b823404918, type: 3}
    - {fileID: 21300020, guid: 93575f0018eec4a4598176b823404918, type: 3}
    - {fileID: 21300022, guid: 93575f0018eec4a4598176b823404918, type: 3}
    - {fileID: 21300024, guid: 93575f0018eec4a4598176b823404918, type: 3}
    - {fileID: 21300026, guid: 93575f0018eec4a4598176b823404918, type: 3}
    - {fileID: 21300028, guid: 93575f0018eec4a4598176b823404918, type: 3}
    - {fileID: 21300030, guid: 93575f0018eec4a4598176b823404918, type: 3}
    - {fileID: 21300032, guid: 93575f0018eec4a4598176b823404918, type: 3}
    - {fileID: 21300034, guid: 93575f0018eec4a4598176b823404918, type: 3}
    - {fileID: 21300036, guid: 93575f0018eec4a4598176b823404918, type: 3}
    - {fileID: 21300038, guid: 93575f0018eec4a4598176b823404918, type: 3}
  m_AnimationClipSettings:
    serializedVersion: 2
    m_AdditiveReferencePoseClip: {fileID: 0}
    m_AdditiveReferencePoseTime: 0
    m_StartTime: 0
    m_StopTime: 0.5
    m_OrientationOffsetY: 0
    m_Level: 0
    m_CycleOffset: 0
    m_HasAdditiveReferencePose: 0
    m_LoopTime: 0
    m_LoopBlend: 0
    m_LoopBlendOrientation: 0
    m_LoopBlendPositionY: 0
    m_LoopBlendPositionXZ: 0
    m_KeepOriginalOrientation: 0
    m_KeepOriginalPositionY: 1
    m_KeepOriginalPositionXZ: 0
    m_HeightFromFeet: 0
    m_Mirror: 0
  m_EditorCurves:
  - curve:
      serializedVersion: 2
      m_Curve:
      - serializedVersion: 3
        time: 0
        value: 0
        inSlope: Infinity
        outSlope: Infinity
        tangentMode: 103
        weightedMode: 0
        inWeight: 0.33333334
        outWeight: 0.33333334
      - serializedVersion: 3
        time: 0.025
        value: 1
        inSlope: Infinity
        outSlope: Infinity
        tangentMode: 103
        weightedMode: 0
        inWeight: 0.33333334
        outWeight: 0.33333334
      - serializedVersion: 3
        time: 0.475
        value: 1
        inSlope: Infinity
        outSlope: Infinity
        tangentMode: 103
        weightedMode: 0
        inWeight: 0.33333334
        outWeight: 0.33333334
      - serializedVersion: 3
        time: 0.5
        value: 0
        inSlope: Infinity
        outSlope: Infinity
        tangentMode: 103
        weightedMode: 0
        inWeight: 0.33333334
        outWeight: 0.33333334
      m_PreInfinity: 2
      m_PostInfinity: 2
      m_RotationOrder: 4
    attribute: m_Enabled
    path: meleeAreaOfEffect
    classID: 58
    script: {fileID: 0}
  m_EulerEditorCurves: []
  m_HasGenericRootTransform: 0
  m_HasMotionFloatCurves: 0
  m_Events: []
